\relax 
\providecommand\hyper@newdestlabel[2]{}
\providecommand\HyperFirstAtBeginDocument{\AtBeginDocument}
\HyperFirstAtBeginDocument{\ifx\hyper@anchor\@undefined
\global\let\oldcontentsline\contentsline
\gdef\contentsline#1#2#3#4{\oldcontentsline{#1}{#2}{#3}}
\global\let\oldnewlabel\newlabel
\gdef\newlabel#1#2{\newlabelxx{#1}#2}
\gdef\newlabelxx#1#2#3#4#5#6{\oldnewlabel{#1}{{#2}{#3}}}
\AtEndDocument{\ifx\hyper@anchor\@undefined
\let\contentsline\oldcontentsline
\let\newlabel\oldnewlabel
\fi}
\fi}
\global\let\hyper@last\relax 
\gdef\HyperFirstAtBeginDocument#1{#1}
\providecommand\HyField@AuxAddToFields[1]{}
\providecommand\HyField@AuxAddToCoFields[2]{}
\citation{ref_greybox}
\citation{ref_afl}
\citation{ref_instrim}
\citation{ref_verifuzz}
\citation{ref_intervalAnalysis}
\citation{ref_afl_whitepaper}
\@writefile{toc}{\contentsline {title}{RERS-Fuzz : Combining Greybox Fuzzing with Interval Analysis for error reachability in reactive softwares}{1}{chapter.1}}
\@writefile{toc}{\authcount {1}}
\@writefile{toc}{\contentsline {author}{Animesh Basak Chowdhury}{1}{chapter.1}}
\@writefile{toc}{\contentsline {section}{\numberline {1}Introduction}{1}{section.1.1}}
\citation{ref_instrim}
\citation{ref_verifuzz}
\citation{ref_intervalAnalysis}
\@writefile{toc}{\contentsline {section}{\numberline {2}Approach}{2}{section.1.2}}
\citation{ref_afl}
\@writefile{toc}{\contentsline {section}{\numberline {3}Tool Implementation}{3}{section.1.3}}
\@writefile{lof}{\contentsline {figure}{\numberline {1}{\ignorespaces RERS-Fuzz : Overview}}{3}{figure.1.1}}
\newlabel{fig:rersFuzzOverview}{{1}{3}{RERS-Fuzz : Overview}{figure.1.1}{}}
\@writefile{toc}{\contentsline {section}{\numberline {4}Strengths and Weakness}{3}{section.1.4}}
\bibcite{ref_afl}{1}
\bibcite{ref_instrim}{2}
\bibcite{ref_verifuzz}{3}
\bibcite{ref_intervalAnalysis}{4}
\bibcite{ref_afl_whitepaper}{5}
\bibcite{ref_greybox}{6}
